…
{% highlight r %}
tv_shows_resume <- group_by(data_all_shows,series_name,season) %>%
  summarize(eps = n(), median = median(UserRating, na.rm = T))

tv_shows_resume
{% endhighlight %}



{% highlight text %}
## Source: local data frame [147 x 4]
## Groups: series_name [?]
## 
## # A tibble: 147 x 4
##               series_name season   eps median
##                    <fctr>  <int> <int>  <dbl>
##  1         13 Reasons Why      1    13   8.50
##  2 Agents of S.H.I.E.L.D.      1    22   8.20
##  3 Agents of S.H.I.E.L.D.      2    22   8.60
##  4 Agents of S.H.I.E.L.D.      3    22   8.65
##  5 Agents of S.H.I.E.L.D.      4    21   8.80
##  6                  Arrow      1    23   8.50
##  7                  Arrow      2    23   8.90
##  8                  Arrow      3    23   8.70
##  9                  Arrow      4    23   8.20
## 10                  Arrow      5    21   8.50
## # ... with 137 more rows
…
{% highlight r %}
tv_shows_resume <- group_by(data_all_shows,series_name,season) %>%
  summarize(eps = n(), median = median(UserRating, na.rm = T)) %>%
  mutate(variation=(median - lag(median)), last_season = lag(median))

tv_shows_resume
{% endhighlight %}



{% highlight text %}
## Source: local data frame [147 x 6]
## Groups: series_name [31]
## 
## # A tibble: 147 x 6
##               series_name season   eps median variation last_season
##                    <fctr>  <int> <int>  <dbl>     <dbl>       <dbl>
##  1         13 Reasons Why      1    13   8.50        NA          NA
##  2 Agents of S.H.I.E.L.D.      1    22   8.20        NA          NA
##  3 Agents of S.H.I.E.L.D.      2    22   8.60      0.40        8.20
##  4 Agents of S.H.I.E.L.D.      3    22   8.65      0.05        8.60
##  5 Agents of S.H.I.E.L.D.      4    21   8.80      0.15        8.65
##  6                  Arrow      1    23   8.50        NA          NA
##  7                  Arrow      2    23   8.90      0.40        8.50
##  8                  Arrow      3    23   8.70     -0.20        8.90
##  9                  Arrow      4    23   8.20     -0.50        8.70
## 10                  Arrow      5    21   8.50      0.30        8.20
## # ... with 137 more rows
…
#Series com poucos episódios são melhores avaliadas que as com maior numero de episódios?

Para isso temos que dividir as séries em dois grupos,o com muitos episodios e o com poucos episodios. Vamos definir que uma série que tenho mais de 25 episodios se encaixa no grupo com muitos episodios.

{% highlight r %}
big_shows <- group_by(data_all_shows,series_name) %>%
  summarize(eps = n(), median = median(UserRating, na.rm = T)) %>%
  filter(eps > 25)
big_shows
{% endhighlight %}



{% highlight text %}
## # A tibble: 24 x 3
##               series_name   eps median
##                    <fctr> <int>  <dbl>
##  1 Agents of S.H.I.E.L.D.    87   8.60
##  2                  Arrow   113   8.60
##  3           Breaking Bad    62   8.90
##  4              Daredevil    26   8.95
##  5                 Dexter    96   8.70
##  6                  Flash    68   8.70
##  7                Friends   236   8.50
##  8        Game of Thrones    60   8.95
##  9                 Gotham    62   8.40
## 10       Greyâs Anatomy   291   8.20
## # ... with 14 more rows
…
