…
{% highlight r %}
tv_shows_resume <- group_by(data_all_shows,series_name,season) %>%
  summarize(eps = n(), median = median(UserRating, na.rm = T))

tv_shows_resume
{% endhighlight %}



{% highlight text %}
## Source: local data frame [1,947 x 4]
## Groups: series_name [?]
## 
## # A tibble: 1,947 x 4
##       series_name season   eps median
##            <fctr>  <int> <int>  <dbl>
##  1  100 Questions      1     6   6.90
##  2       11.22.63      1     8   8.25
##  3     12 Monkeys      1    13   8.30
##  4     12 Monkeys      2    13   8.70
##  5     12 Monkeys      3    10   9.10
##  6 13 Reasons Why      1    13   8.50
##  7     18 To Life      1    12   6.90
##  8     18 To Life      2    13   6.80
##  9  2 Broke Girls      1    24   7.40
## 10  2 Broke Girls      2    24   7.40
## # ... with 1,937 more rows
…
{% highlight r %}
tv_shows_resume <- group_by(data_all_shows,series_name,season) %>%
  summarize(eps = n(), median = median(UserRating, na.rm = T)) %>%
  mutate(variation=(median - lag(median)), last_season = lag(median))

tv_shows_resume
{% endhighlight %}



{% highlight text %}
## Source: local data frame [1,947 x 6]
## Groups: series_name [511]
## 
## # A tibble: 1,947 x 6
##       series_name season   eps median variation last_season
##            <fctr>  <int> <int>  <dbl>     <dbl>       <dbl>
##  1  100 Questions      1     6   6.90        NA          NA
##  2       11.22.63      1     8   8.25        NA          NA
##  3     12 Monkeys      1    13   8.30        NA          NA
##  4     12 Monkeys      2    13   8.70       0.4         8.3
##  5     12 Monkeys      3    10   9.10       0.4         8.7
##  6 13 Reasons Why      1    13   8.50        NA          NA
##  7     18 To Life      1    12   6.90        NA          NA
##  8     18 To Life      2    13   6.80      -0.1         6.9
##  9  2 Broke Girls      1    24   7.40        NA          NA
## 10  2 Broke Girls      2    24   7.40       0.0         7.4
## # ... with 1,937 more rows
…
tv_shows_resume
{% endhighlight %}



{% highlight text %}
## Source: local data frame [56 x 6]
## Groups: series_name [47]
## 
## # A tibble: 56 x 6
##             series_name season   eps median variation last_season
##                  <fctr>  <int> <int>  <dbl>     <dbl>       <dbl>
##  1             24 Horas      4    25   8.50     -0.20         8.7
##  2             24 Horas      6    25   8.30     -0.40         8.7
##  3           Army Wives      3    18   8.50     -0.30         8.8
##  4 Arrested Development      4    15   8.00     -0.80         8.8
##  5                Arrow      4    23   8.20     -0.50         8.7
##  6           Baby Daddy      6    11   8.40     -0.40         8.8
##  7     Better Call Saul      2    10   8.60     -0.30         8.9
##  8                Bosch      3    10   8.60     -0.30         8.9
##  9         Chasing Life      2    13   8.60     -0.20         8.8
## 10                Chuck      4    24   8.55     -0.35         8.9
## # ... with 46 more rows
…
#Series com poucos episódios são melhores avaliadas que as com maior numero de episódios?

Para isso temos que dividir as séries em dois grupos,o com muitos episodios e o com poucos episodios. Vamos definir que uma série que tenho mais de 25 episodios se encaixa no grupo com muitos episodios.

{% highlight r %}
big_shows <- group_by(data_all_shows,series_name) %>%
  summarize(eps = n(), median = median(UserRating, na.rm = T)) %>%
  filter(eps > 25)
big_shows
{% endhighlight %}



{% highlight text %}
## # A tibble: 316 x 3
##                  series_name   eps median
##                       <fctr> <int>  <dbl>
##  1                12 Monkeys    36    8.7
##  2             2 Broke Girls   137    7.3
##  3                  24 Horas   195    8.6
##  4                   30 Rock   137    8.1
##  5                     90210   114    7.5
##  6 a Patroa e as CrianÃÂ§as   124    7.0
##  7    Agents of S.H.I.E.L.D.    88    8.6
##  8                     Alias   105    7.6
##  9            American Crime    29    8.2
## 10              American Dad   225    7.4
## # ... with 306 more rows
{% endhighlight %}



{% highlight r %}
small_shows <- group_by(data_all_shows,series_name) %>%
  summarize(eps = n(), median = median(UserRating, na.rm = T)) %>%
  filter(eps <= 25)
small_shows
{% endhighlight %}



{% highlight text %}
## # A tibble: 195 x 3
##                series_name   eps median
##                     <fctr> <int>  <dbl>
##  1           100 Questions     6   6.90
##  2                11.22.63     8   8.25
##  3          13 Reasons Why    13   8.50
##  4              18 To Life    25   6.80
##  5            A Gifted Man    16   8.05
##  6                  A To Z    13   7.80
##  7 Accidentally on Purpose    18   7.40
##  8            Agent Carter    18   8.40
##  9                 Agent X    10   7.70
## 10       Aliens In America    18   7.30
## # ... with 185 more rows
…
